…
mta_data %>%
  mutate( 
    '2019_subway' = subways_total_estimated_ridership/(1+(subways_percent_change_from_2019_equivalent_day/100)),
    '2019_bus'=
      buses_total_estimated_ridership/(1+(buses_percent_change_from_2019_equivalent_day/100))
    ) %>%
  rename(
    "2020_subway" = subways_total_estimated_ridership,
    "subway_pct_change" = subways_percent_change_from_2019_equivalent_day,
    "2020_bus" = buses_total_estimated_ridership,
    "bus_pct_change" = buses_percent_change_from_2019_equivalent_day
    )
```

    ## # A tibble: 268 x 7
    ##    date  `2020_subway` subway_pct_chan… `2020_bus` bus_pct_change `2019_subway`
    ##    <chr>         <dbl>            <dbl>      <dbl>          <dbl>         <dbl>
    ##  1 11/2…       1641253            -71.3     930655            -59      5718652.
    ##  2 11/2…        816461            -63.8     536678            -42      2255417.
    ##  3 11/2…       1157063            -63.7     743813            -45      3187501.
    ##  4 11/2…       1802844            -68.9    1060041            -52      5796926.
    ##  5 11/1…       1760491            -70.7    1052172            -55      6008502.
    ##  6 11/1…       1790760            -69.8    1069304            -54      5929669.
    ##  7 11/1…       1792119            -69.6    1091406            -53      5895128.
    ##  8 11/1…       1745086            -68.9    1050451            -52      5611209.
    ##  9 11/1…        821525            -66.3     524187            -48      2437760.
    ## 10 11/1…       1215461            -62.4     755379            -43      3232609.
    ## # … with 258 more rows, and 1 more variable: `2019_bus` <dbl>
…
